{
    "textures": {
		"particle": "tardis:blocks/three_point_lamp_on",
        "down": "block/light_gray_concrete",
        "up": "block/black_wool",
        "north": "tardis:blocks/three_point_lamp_on",
        "south": "tardis:blocks/three_point_lamp_on",
        "east": "tardis:blocks/three_point_lamp_on",
        "west": "tardis:blocks/three_point_lamp_on"
    },
	"elements": [
        {   "from": [ 0, 0, 0 ],
            "to": [ 16, 16, 16 ],
            "faces": {
                "down":  { "texture": "#down", "cullface": "down" },
                "up":    { "texture": "#up", "cullface": "up" },
                "north": { "texture": "#north", "cullface": "north" },
                "south": { "texture": "#south", "cullface": "south" },
                "west":  { "texture": "#west", "cullface": "west" },
                "east":  { "texture": "#east", "cullface": "east" }
            }
        }]
}