{
  "type": "minecraft:crafting_shaped",
  "pattern":[
  "ISI",
  "TCG",
  "IWI"
  ],
  "key": {
  "C":
  {
  "item": "tardis:circuits"
  },
  "G":
  {
   "item": "minecraft:grass"
  },
  "I":
  {
  "item":"minecraft:iron_ingot"
  },
   "S":
  {
  "item": "minecraft:sand"
  },
  "T":
  {
  "item": "minecraft:stone"
  },
  "W":
  {
  "item" : "minecraft:prismarine_shard"
  }
  },
  "result": {
    "item": "tardis:chameleon_circuit"
  }
}