{
  "type": "minecraft:crafting_shaped",
  "pattern":[
  "ICI",
  "IMI",
  "ICI"
  ],
  "key": {
  "C":
  {
  "item": "tardis:circuits"
  },
  "I":
  {
  "item":"minecraft:iron_ingot"
  },
   "M":
  {
  "item": "tardis:mercury_bottle"
  }
  },
  "result": {
    "item": "tardis:fluid_link"
  }
}