{
	"credit": "Made with Blockbench",
	"texture_size": [32, 32],
	"textures": {
		"5": "tardis:item/sonics//mk2_activator"
	},
	"elements": [
		{
			"name": "octagon",
			"from": [3.39091, 2.58494, 0.8404],
			"to": [4.00553, 4.06877, 1.46085],
			"rotation": {"angle": 45, "axis": "z", "origin": [8, 7.62863, 5.94686]},
			"faces": {
				"north": {"uv": [5.5, 5, 6, 5.5], "texture": "#5"},
				"east": {"uv": [2.5, 8.5, 3, 9], "texture": "#5"},
				"south": {"uv": [6.5, 8.5, 7, 9], "texture": "#5"},
				"west": {"uv": [7, 8.5, 7.5, 9], "texture": "#5"},
				"up": {"uv": [8, 9, 7.5, 8.5], "texture": "#5"},
				"down": {"uv": [8.5, 8.5, 8, 9], "texture": "#5"}
			}
		},
		{
			"name": "octagon",
			"from": [7.69269, 0.80309, 0.8404],
			"to": [8.30731, 2.28691, 1.46085],
			"rotation": {"angle": 0, "axis": "y", "origin": [8, 7.62863, 5.94686]},
			"faces": {
				"north": {"uv": [8.5, 8.5, 9, 9], "texture": "#5"},
				"east": {"uv": [8.5, 2, 9, 2.5], "texture": "#5"},
				"south": {"uv": [8.5, 2.5, 9, 3], "texture": "#5"},
				"west": {"uv": [8.5, 3, 9, 3.5], "texture": "#5"},
				"up": {"uv": [9, 4, 8.5, 3.5], "texture": "#5"},
				"down": {"uv": [9, 4.5, 8.5, 5], "texture": "#5"}
			}
		},
		{
			"name": "octagon",
			"from": [2.95631, 3.01955, 0.8404],
			"to": [4.44013, 3.63416, 1.46085],
			"rotation": {"angle": 45, "axis": "z", "origin": [8, 7.62863, 5.94686]},
			"faces": {
				"north": {"uv": [8.5, 5, 9, 5.5], "texture": "#5"},
				"east": {"uv": [8.5, 6, 9, 6.5], "texture": "#5"},
				"south": {"uv": [8.5, 6.5, 9, 7], "texture": "#5"},
				"west": {"uv": [8.5, 7, 9, 7.5], "texture": "#5"},
				"up": {"uv": [9, 8, 8.5, 7.5], "texture": "#5"},
				"down": {"uv": [0.5, 9, 0, 9.5], "texture": "#5"}
			}
		},
		{
			"name": "octagon",
			"from": [7.25809, 1.23769, 0.8404],
			"to": [8.74191, 1.85231, 1.46085],
			"rotation": {"angle": 0, "axis": "y", "origin": [8, 7.62863, 5.94686]},
			"faces": {
				"north": {"uv": [0.5, 9, 1, 9.5], "texture": "#5"},
				"east": {"uv": [1.5, 9, 2, 9.5], "texture": "#5"},
				"south": {"uv": [2, 9, 2.5, 9.5], "texture": "#5"},
				"west": {"uv": [2.5, 9, 3, 9.5], "texture": "#5"},
				"up": {"uv": [3.5, 9.5, 3, 9], "texture": "#5"},
				"down": {"uv": [4, 9, 3.5, 9.5], "texture": "#5"}
			}
		},
		{
			"name": "octagon",
			"from": [1.36476, 3.0421, 1.58782],
			"to": [2.24956, 5.17821, 6.52593],
			"rotation": {"angle": 45, "axis": "z", "origin": [8, 10.303, 6.89437]},
			"faces": {
				"north": {"uv": [4.5, 1, 5, 2], "texture": "#5"},
				"east": {"uv": [0, 0, 2.5, 1], "texture": "#5"},
				"south": {"uv": [5.5, 5.5, 6, 6.5], "texture": "#5"},
				"west": {"uv": [0, 1, 2.5, 2], "texture": "#5"},
				"up": {"uv": [0.5, 7, 0, 4.5], "texture": "#5"},
				"down": {"uv": [1, 4.5, 0.5, 7], "texture": "#5"}
			}
		},
		{
			"name": "octagon",
			"from": [7.5576, 0.47694, 1.58782],
			"to": [8.4424, 2.61306, 2.02593],
			"rotation": {"angle": 0, "axis": "y", "origin": [8, 10.303, 6.89437]},
			"faces": {
				"north": {"uv": [5.5, 1, 6, 2], "texture": "#5"},
				"east": {"uv": [5.5, 2, 6, 3], "texture": "#5"},
				"south": {"uv": [2, 6, 2.5, 7], "texture": "#5"},
				"west": {"uv": [2.5, 6, 3, 7], "texture": "#5"},
				"up": {"uv": [4.5, 9.5, 4, 9], "texture": "#5"},
				"down": {"uv": [5, 9, 4.5, 9.5], "texture": "#5"}
			}
		},
		{
			"name": "octagon",
			"from": [7.5576, 0.47694, 6.08782],
			"to": [8.4424, 2.61306, 6.52593],
			"rotation": {"angle": 0, "axis": "y", "origin": [8, 10.303, 6.89437]},
			"faces": {
				"north": {"uv": [3, 6, 3.5, 7], "texture": "#5"},
				"east": {"uv": [3.5, 6, 4, 7], "texture": "#5"},
				"south": {"uv": [4, 6, 4.5, 7], "texture": "#5"},
				"west": {"uv": [4.5, 6, 5, 7], "texture": "#5"},
				"up": {"uv": [5.5, 9.5, 5, 9], "texture": "#5"},
				"down": {"uv": [6, 9, 5.5, 9.5], "texture": "#5"}
			}
		},
		{
			"name": "octagon",
			"from": [7.5576, 0.47694, 4.83782],
			"to": [8.4424, 2.61306, 5.27593],
			"rotation": {"angle": 0, "axis": "y", "origin": [8, 10.303, 6.89437]},
			"faces": {
				"north": {"uv": [6, 6, 6.5, 7], "texture": "#5"},
				"east": {"uv": [6, 1, 6.5, 2], "texture": "#5"},
				"south": {"uv": [6, 2, 6.5, 3], "texture": "#5"},
				"west": {"uv": [6, 5, 6.5, 6], "texture": "#5"},
				"up": {"uv": [6.5, 9.5, 6, 9], "texture": "#5"},
				"down": {"uv": [7, 9, 6.5, 9.5], "texture": "#5"}
			}
		},
		{
			"name": "octagon",
			"from": [7.5576, 0.47694, 3.99407],
			"to": [8.4424, 2.61306, 4.18218],
			"rotation": {"angle": 0, "axis": "y", "origin": [8, 10.303, 6.89437]},
			"faces": {
				"north": {"uv": [1, 6.5, 1.5, 7.5], "texture": "#5"},
				"east": {"uv": [1.5, 6.5, 2, 7.5], "texture": "#5"},
				"south": {"uv": [5.5, 6.5, 6, 7.5], "texture": "#5"},
				"west": {"uv": [6.5, 6.5, 7, 7.5], "texture": "#5"},
				"up": {"uv": [7.5, 9.5, 7, 9], "texture": "#5"},
				"down": {"uv": [8, 9, 7.5, 9.5], "texture": "#5"}
			}
		},
		{
			"name": "octagon",
			"from": [7.5576, 0.47694, 4.43157],
			"to": [8.4424, 2.61306, 4.61968],
			"rotation": {"angle": 0, "axis": "y", "origin": [8, 10.303, 6.89437]},
			"faces": {
				"north": {"uv": [6.5, 1, 7, 2], "texture": "#5"},
				"east": {"uv": [6.5, 2, 7, 3], "texture": "#5"},
				"south": {"uv": [6.5, 5, 7, 6], "texture": "#5"},
				"west": {"uv": [0, 7, 0.5, 8], "texture": "#5"},
				"up": {"uv": [8.5, 9.5, 8, 9], "texture": "#5"},
				"down": {"uv": [9, 9, 8.5, 9.5], "texture": "#5"}
			}
		},
		{
			"name": "octagon",
			"from": [0.7391, 3.66776, 1.58782],
			"to": [2.87521, 4.55256, 6.52593],
			"rotation": {"angle": 45, "axis": "z", "origin": [8, 10.303, 6.89437]},
			"faces": {
				"north": {"uv": [6.5, 6, 7.5, 6.5], "texture": "#5"},
				"east": {"uv": [4.5, 0, 7, 0.5], "texture": "#5"},
				"south": {"uv": [2, 7, 3, 7.5], "texture": "#5"},
				"west": {"uv": [4.5, 0.5, 7, 1], "texture": "#5"},
				"up": {"uv": [1, 4.5, 0, 2], "texture": "#5"},
				"down": {"uv": [2, 2, 1, 4.5], "texture": "#5"}
			}
		},
		{
			"name": "octagon",
			"from": [6.93194, 1.1026, 1.58782],
			"to": [9.06806, 1.9874, 2.02593],
			"rotation": {"angle": 0, "axis": "y", "origin": [8, 10.303, 6.89437]},
			"faces": {
				"north": {"uv": [3, 7, 4, 7.5], "texture": "#5"},
				"east": {"uv": [9, 9, 9.5, 9.5], "texture": "#5"},
				"south": {"uv": [4, 7, 5, 7.5], "texture": "#5"},
				"west": {"uv": [9, 0, 9.5, 0.5], "texture": "#5"},
				"up": {"uv": [8, 7.5, 7, 7], "texture": "#5"},
				"down": {"uv": [8, 0, 7, 0.5], "texture": "#5"}
			}
		},
		{
			"name": "octagon",
			"from": [6.93194, 1.1026, 6.08782],
			"to": [9.06806, 1.9874, 6.52593],
			"rotation": {"angle": 0, "axis": "y", "origin": [8, 10.303, 6.89437]},
			"faces": {
				"north": {"uv": [7, 0.5, 8, 1], "texture": "#5"},
				"east": {"uv": [9, 0.5, 9.5, 1], "texture": "#5"},
				"south": {"uv": [7, 1, 8, 1.5], "texture": "#5"},
				"west": {"uv": [9, 1, 9.5, 1.5], "texture": "#5"},
				"up": {"uv": [8, 2, 7, 1.5], "texture": "#5"},
				"down": {"uv": [8, 2, 7, 2.5], "texture": "#5"}
			}
		},
		{
			"name": "octagon",
			"from": [6.93194, 1.1026, 3.83782],
			"to": [9.06806, 1.9874, 4.27593],
			"rotation": {"angle": 0, "axis": "y", "origin": [8, 10.303, 6.89437]},
			"faces": {
				"north": {"uv": [7, 2.5, 8, 3], "texture": "#5"},
				"east": {"uv": [9, 1.5, 9.5, 2], "texture": "#5"},
				"south": {"uv": [7, 3, 8, 3.5], "texture": "#5"},
				"west": {"uv": [9, 2, 9.5, 2.5], "texture": "#5"},
				"up": {"uv": [8, 4, 7, 3.5], "texture": "#5"},
				"down": {"uv": [8, 4, 7, 4.5], "texture": "#5"}
			}
		},
		{
			"name": "octagon",
			"from": [2.16099, 2.86245, 6.41411],
			"to": [2.93962, 4.74223, 6.79339],
			"rotation": {"angle": 45, "axis": "z", "origin": [8, 9.25204, 6.58387]},
			"faces": {
				"north": {"uv": [0.5, 7, 1, 8], "texture": "#5"},
				"east": {"uv": [5, 7, 5.5, 8], "texture": "#5"},
				"south": {"uv": [6, 7, 6.5, 8], "texture": "#5"},
				"west": {"uv": [7, 4.5, 7.5, 5.5], "texture": "#5"},
				"up": {"uv": [9.5, 3, 9, 2.5], "texture": "#5"},
				"down": {"uv": [9.5, 3, 9, 3.5], "texture": "#5"}
			}
		},
		{
			"name": "octagon",
			"from": [7.61069, 0.60511, 6.41411],
			"to": [8.38931, 2.48489, 6.79339],
			"rotation": {"angle": 0, "axis": "y", "origin": [8, 9.25204, 6.58387]},
			"faces": {
				"north": {"uv": [1, 7.5, 1.5, 8.5], "texture": "#5"},
				"east": {"uv": [1.5, 7.5, 2, 8.5], "texture": "#5"},
				"south": {"uv": [2, 7.5, 2.5, 8.5], "texture": "#5"},
				"west": {"uv": [2.5, 7.5, 3, 8.5], "texture": "#5"},
				"up": {"uv": [9.5, 4, 9, 3.5], "texture": "#5"},
				"down": {"uv": [9.5, 4, 9, 4.5], "texture": "#5"}
			}
		},
		{
			"name": "octagon",
			"from": [1.61041, 3.41302, 6.41411],
			"to": [3.49019, 4.19165, 6.79339],
			"rotation": {"angle": 45, "axis": "z", "origin": [8, 9.25204, 6.58387]},
			"faces": {
				"north": {"uv": [7, 5.5, 8, 6], "texture": "#5"},
				"east": {"uv": [9, 4.5, 9.5, 5], "texture": "#5"},
				"south": {"uv": [7, 6.5, 8, 7], "texture": "#5"},
				"west": {"uv": [9, 5, 9.5, 5.5], "texture": "#5"},
				"up": {"uv": [4, 8, 3, 7.5], "texture": "#5"},
				"down": {"uv": [5, 7.5, 4, 8], "texture": "#5"}
			}
		},
		{
			"name": "octagon",
			"from": [7.06011, 1.15569, 6.41411],
			"to": [8.93989, 1.93431, 6.79339],
			"rotation": {"angle": 0, "axis": "y", "origin": [8, 9.25204, 6.58387]},
			"faces": {
				"north": {"uv": [6.5, 7.5, 7.5, 8], "texture": "#5"},
				"east": {"uv": [9, 5.5, 9.5, 6], "texture": "#5"},
				"south": {"uv": [7.5, 7.5, 8.5, 8], "texture": "#5"},
				"west": {"uv": [9, 6, 9.5, 6.5], "texture": "#5"},
				"up": {"uv": [8.5, 5, 7.5, 4.5], "texture": "#5"},
				"down": {"uv": [8.5, 5, 7.5, 5.5], "texture": "#5"}
			}
		},
		{
			"name": "octagon",
			"from": [2.16099, 2.86245, 1.35161],
			"to": [2.93962, 4.74223, 1.73089],
			"rotation": {"angle": 45, "axis": "z", "origin": [8, 9.25204, 6.58387]},
			"faces": {
				"north": {"uv": [5.5, 7.5, 6, 8.5], "texture": "#5"},
				"east": {"uv": [0, 8, 0.5, 9], "texture": "#5"},
				"south": {"uv": [0.5, 8, 1, 9], "texture": "#5"},
				"west": {"uv": [3, 8, 3.5, 9], "texture": "#5"},
				"up": {"uv": [9.5, 7, 9, 6.5], "texture": "#5"},
				"down": {"uv": [9.5, 7, 9, 7.5], "texture": "#5"}
			}
		},
		{
			"name": "octagon",
			"from": [7.61069, 0.60511, 1.35161],
			"to": [8.38931, 2.48489, 1.73089],
			"rotation": {"angle": 0, "axis": "y", "origin": [8, 9.25204, 6.58387]},
			"faces": {
				"north": {"uv": [3.5, 8, 4, 9], "texture": "#5"},
				"east": {"uv": [4, 8, 4.5, 9], "texture": "#5"},
				"south": {"uv": [4.5, 8, 5, 9], "texture": "#5"},
				"west": {"uv": [5, 8, 5.5, 9], "texture": "#5"},
				"up": {"uv": [9.5, 8, 9, 7.5], "texture": "#5"},
				"down": {"uv": [9.5, 8, 9, 8.5], "texture": "#5"}
			}
		},
		{
			"name": "octagon",
			"from": [1.61041, 3.41302, 1.35161],
			"to": [3.49019, 4.19165, 1.73089],
			"rotation": {"angle": 45, "axis": "z", "origin": [8, 9.25204, 6.58387]},
			"faces": {
				"north": {"uv": [7.5, 6, 8.5, 6.5], "texture": "#5"},
				"east": {"uv": [9, 8.5, 9.5, 9], "texture": "#5"},
				"south": {"uv": [6, 8, 7, 8.5], "texture": "#5"},
				"west": {"uv": [0, 9.5, 0.5, 10], "texture": "#5"},
				"up": {"uv": [8, 8.5, 7, 8], "texture": "#5"},
				"down": {"uv": [9, 8, 8, 8.5], "texture": "#5"}
			}
		},
		{
			"name": "octagon",
			"from": [7.06011, 1.15569, 1.35161],
			"to": [8.93989, 1.93431, 1.73089],
			"rotation": {"angle": 0, "axis": "y", "origin": [8, 9.25204, 6.58387]},
			"faces": {
				"north": {"uv": [8, 0, 9, 0.5], "texture": "#5"},
				"east": {"uv": [0.5, 9.5, 1, 10], "texture": "#5"},
				"south": {"uv": [8, 0.5, 9, 1], "texture": "#5"},
				"west": {"uv": [1, 9.5, 1.5, 10], "texture": "#5"},
				"up": {"uv": [9, 1.5, 8, 1], "texture": "#5"},
				"down": {"uv": [9, 1.5, 8, 2], "texture": "#5"}
			}
		},
		{
			"name": "octagon",
			"from": [2.16099, 2.86245, 1.85161],
			"to": [2.93962, 4.74223, 6.23089],
			"rotation": {"angle": 45, "axis": "z", "origin": [8, 9.25204, 6.58387]},
			"faces": {
				"north": {"uv": [8, 2, 8.5, 3], "texture": "#5"},
				"east": {"uv": [2, 2, 4, 3], "texture": "#5"},
				"south": {"uv": [8, 3, 8.5, 4], "texture": "#5"},
				"west": {"uv": [2.5, 0, 4.5, 1], "texture": "#5"},
				"up": {"uv": [1.5, 6.5, 1, 4.5], "texture": "#5"},
				"down": {"uv": [2, 4.5, 1.5, 6.5], "texture": "#5"}
			}
		},
		{
			"name": "octagon",
			"from": [7.61069, 0.60511, 1.85161],
			"to": [8.38931, 2.48489, 6.23089],
			"rotation": {"angle": 0, "axis": "y", "origin": [8, 9.25204, 6.58387]},
			"faces": {
				"north": {"uv": [8, 6.5, 8.5, 7.5], "texture": "#5"},
				"east": {"uv": [2.5, 1, 4.5, 2], "texture": "#5"},
				"south": {"uv": [1, 8.5, 1.5, 9.5], "texture": "#5"},
				"west": {"uv": [2, 3, 4, 4], "texture": "#5"},
				"up": {"uv": [5.5, 7, 5, 5], "texture": "#5"},
				"down": {"uv": [5.5, 1, 5, 3], "texture": "#5"}
			}
		},
		{
			"name": "octagon",
			"from": [1.61041, 3.41302, 1.85161],
			"to": [3.49019, 4.19165, 6.23089],
			"rotation": {"angle": 45, "axis": "z", "origin": [8, 9.25204, 6.58387]},
			"faces": {
				"north": {"uv": [8, 4, 9, 4.5], "texture": "#5"},
				"east": {"uv": [5, 3, 7, 3.5], "texture": "#5"},
				"south": {"uv": [8, 5.5, 9, 6], "texture": "#5"},
				"west": {"uv": [5, 3.5, 7, 4], "texture": "#5"},
				"up": {"uv": [3, 6, 2, 4], "texture": "#5"},
				"down": {"uv": [4, 4, 3, 6], "texture": "#5"}
			}
		},
		{
			"name": "octagon",
			"from": [7.06011, 1.15569, 1.85161],
			"to": [8.93989, 1.93431, 6.23089],
			"rotation": {"angle": 0, "axis": "y", "origin": [8, 9.25204, 6.58387]},
			"faces": {
				"north": {"uv": [1.5, 8.5, 2.5, 9], "texture": "#5"},
				"east": {"uv": [5, 4, 7, 4.5], "texture": "#5"},
				"south": {"uv": [5.5, 8.5, 6.5, 9], "texture": "#5"},
				"west": {"uv": [5, 4.5, 7, 5], "texture": "#5"},
				"up": {"uv": [5, 6, 4, 4], "texture": "#5"},
				"down": {"uv": [5, 2, 4, 4], "texture": "#5"}
			}
		},
		{
			"name": "octagon",
			"from": [3.39091, 2.58494, 6.5904],
			"to": [4.00553, 4.06877, 7.08585],
			"rotation": {"angle": 45, "axis": "z", "origin": [8, 7.62863, 5.94686]},
			"faces": {
				"north": {"uv": [1.5, 9.5, 2, 10], "texture": "#5"},
				"east": {"uv": [2, 9.5, 2.5, 10], "texture": "#5"},
				"south": {"uv": [2.5, 9.5, 3, 10], "texture": "#5"},
				"west": {"uv": [3, 9.5, 3.5, 10], "texture": "#5"},
				"up": {"uv": [4, 10, 3.5, 9.5], "texture": "#5"},
				"down": {"uv": [4.5, 9.5, 4, 10], "texture": "#5"}
			}
		},
		{
			"name": "octagon",
			"from": [7.69269, 0.80309, 6.5904],
			"to": [8.30731, 2.28691, 7.08585],
			"rotation": {"angle": 0, "axis": "y", "origin": [8, 7.62863, 5.94686]},
			"faces": {
				"north": {"uv": [4.5, 9.5, 5, 10], "texture": "#5"},
				"east": {"uv": [5, 9.5, 5.5, 10], "texture": "#5"},
				"south": {"uv": [5.5, 9.5, 6, 10], "texture": "#5"},
				"west": {"uv": [6, 9.5, 6.5, 10], "texture": "#5"},
				"up": {"uv": [7, 10, 6.5, 9.5], "texture": "#5"},
				"down": {"uv": [7.5, 9.5, 7, 10], "texture": "#5"}
			}
		},
		{
			"name": "octagon",
			"from": [2.95631, 3.01955, 6.5904],
			"to": [4.44013, 3.63416, 7.08585],
			"rotation": {"angle": 45, "axis": "z", "origin": [8, 7.62863, 5.94686]},
			"faces": {
				"north": {"uv": [7.5, 9.5, 8, 10], "texture": "#5"},
				"east": {"uv": [8, 9.5, 8.5, 10], "texture": "#5"},
				"south": {"uv": [8.5, 9.5, 9, 10], "texture": "#5"},
				"west": {"uv": [9, 9.5, 9.5, 10], "texture": "#5"},
				"up": {"uv": [10, 10, 9.5, 9.5], "texture": "#5"},
				"down": {"uv": [10, 0, 9.5, 0.5], "texture": "#5"}
			}
		},
		{
			"name": "octagon",
			"from": [7.25809, 1.23769, 6.5904],
			"to": [8.74191, 1.85231, 7.08585],
			"rotation": {"angle": 0, "axis": "y", "origin": [8, 7.62863, 5.94686]},
			"faces": {
				"north": {"uv": [9.5, 0.5, 10, 1], "texture": "#5"},
				"east": {"uv": [9.5, 1, 10, 1.5], "texture": "#5"},
				"south": {"uv": [9.5, 1.5, 10, 2], "texture": "#5"},
				"west": {"uv": [9.5, 2, 10, 2.5], "texture": "#5"},
				"up": {"uv": [10, 3, 9.5, 2.5], "texture": "#5"},
				"down": {"uv": [10, 3, 9.5, 3.5], "texture": "#5"}
			}
		}
	],
	"display": {
		"thirdperson_righthand": {
			"rotation": [90, 0, 0],
			"translation": [0, 0, 3],
			"scale": [0.5, 0.5, 0.5]
		},
		"thirdperson_lefthand": {
			"rotation": [90, 0, 0],
			"translation": [0, 0, 3],
			"scale": [0.5, 0.5, 0.5]
		},
		"firstperson_righthand": {
			"rotation": [90, 0, 30]
		},
		"firstperson_lefthand": {
			"rotation": [90, 0, 30]
		},
		"fixed": {
			"rotation": [90, 45, 0],
			"translation": [1.25, -1.75, 6]
		},
		"ground": {
			"translation": [0, 4, 0]
		},
		"gui": {
			"rotation": [90, 0, 30],
			"translation": [-3, -4, 0]
		}
	}
}