{
	"credit": "Made with Blockbench",
	"texture_size": [32, 32],
	"textures": {
		"12": "tardis:item/sonics/mk7_end"
	},
	"elements": [
		{
			"name": "octagon",
			"from": [3.08272, 2.65448, 14.94188],
			"to": [3.73843, 4.23752, 15.21945],
			"rotation": {"angle": 45, "axis": "z", "origin": [8, 8.03543, 9.88982]},
			"faces": {
				"north": {"uv": [1, 2.5, 1.5, 3.5], "texture": "#12"},
				"east": {"uv": [1.5, 2.5, 2, 3.5], "texture": "#12"},
				"south": {"uv": [2.5, 2.5, 3, 3.5], "texture": "#12"},
				"west": {"uv": [2.5, 0, 3, 1], "texture": "#12"},
				"up": {"uv": [2.5, 8.5, 2, 8], "texture": "#12"},
				"down": {"uv": [3, 8, 2.5, 8.5], "texture": "#12"}
			}
		},
		{
			"name": "octagon",
			"from": [7.67214, 0.75348, 14.94188],
			"to": [8.32786, 2.33652, 15.21945],
			"rotation": {"angle": 0, "axis": "y", "origin": [8, 8.03543, 9.88982]},
			"faces": {
				"north": {"uv": [2, 3, 2.5, 4], "texture": "#12"},
				"east": {"uv": [3, 3, 3.5, 4], "texture": "#12"},
				"south": {"uv": [3, 0, 3.5, 1], "texture": "#12"},
				"west": {"uv": [3, 1, 3.5, 2], "texture": "#12"},
				"up": {"uv": [3.5, 8.5, 3, 8], "texture": "#12"},
				"down": {"uv": [4, 8, 3.5, 8.5], "texture": "#12"}
			}
		},
		{
			"name": "octagon",
			"from": [2.61905, 3.11814, 14.94188],
			"to": [4.20209, 3.77386, 15.21945],
			"rotation": {"angle": 45, "axis": "z", "origin": [8, 8.03543, 9.88982]},
			"faces": {
				"north": {"uv": [2.5, 2, 3.5, 2.5], "texture": "#12"},
				"east": {"uv": [4, 8, 4.5, 8.5], "texture": "#12"},
				"south": {"uv": [3, 2.5, 4, 3], "texture": "#12"},
				"west": {"uv": [4.5, 8, 5, 8.5], "texture": "#12"},
				"up": {"uv": [1, 4, 0, 3.5], "texture": "#12"},
				"down": {"uv": [2, 3.5, 1, 4], "texture": "#12"}
			}
		},
		{
			"name": "octagon",
			"from": [7.20848, 1.21714, 14.94188],
			"to": [8.79152, 1.87286, 15.21945],
			"rotation": {"angle": 0, "axis": "y", "origin": [8, 8.03543, 9.88982]},
			"faces": {
				"north": {"uv": [3.5, 3.5, 4.5, 4], "texture": "#12"},
				"east": {"uv": [5, 8, 5.5, 8.5], "texture": "#12"},
				"south": {"uv": [3.5, 0, 4.5, 0.5], "texture": "#12"},
				"west": {"uv": [5.5, 8, 6, 8.5], "texture": "#12"},
				"up": {"uv": [4.5, 1, 3.5, 0.5], "texture": "#12"},
				"down": {"uv": [4.5, 1, 3.5, 1.5], "texture": "#12"}
			}
		},
		{
			"name": "octagon",
			"from": [1.24955, 3.0681, 15.07652],
			"to": [2.14972, 5.2413, 15.36607],
			"rotation": {"angle": 45, "axis": "z", "origin": [8, 10.45506, 7.77425]},
			"faces": {
				"north": {"uv": [2.5, 3.5, 3, 4.5], "texture": "#12"},
				"east": {"uv": [3.5, 1.5, 4, 2.5], "texture": "#12"},
				"south": {"uv": [0, 4, 0.5, 5], "texture": "#12"},
				"west": {"uv": [0.5, 4, 1, 5], "texture": "#12"},
				"up": {"uv": [6.5, 8.5, 6, 8], "texture": "#12"},
				"down": {"uv": [7, 8, 6.5, 8.5], "texture": "#12"}
			}
		},
		{
			"name": "octagon",
			"from": [7.54992, 0.4584, 15.07652],
			"to": [8.45008, 2.6316, 15.36607],
			"rotation": {"angle": 0, "axis": "y", "origin": [8, 10.45506, 7.77425]},
			"faces": {
				"north": {"uv": [1, 4, 1.5, 5], "texture": "#12"},
				"east": {"uv": [1.5, 4, 2, 5], "texture": "#12"},
				"south": {"uv": [2, 4, 2.5, 5], "texture": "#12"},
				"west": {"uv": [3, 4, 3.5, 5], "texture": "#12"},
				"up": {"uv": [7.5, 8.5, 7, 8], "texture": "#12"},
				"down": {"uv": [8, 8, 7.5, 8.5], "texture": "#12"}
			}
		},
		{
			"name": "octagon",
			"from": [0.61304, 3.70461, 15.07652],
			"to": [2.78624, 4.60478, 15.36607],
			"rotation": {"angle": 45, "axis": "z", "origin": [8, 10.45506, 7.77425]},
			"faces": {
				"north": {"uv": [3.5, 3, 4.5, 3.5], "texture": "#12"},
				"east": {"uv": [8, 8, 8.5, 8.5], "texture": "#12"},
				"south": {"uv": [3.5, 4, 4.5, 4.5], "texture": "#12"},
				"west": {"uv": [8, 1.5, 8.5, 2], "texture": "#12"},
				"up": {"uv": [5, 2, 4, 1.5], "texture": "#12"},
				"down": {"uv": [5, 2, 4, 2.5], "texture": "#12"}
			}
		},
		{
			"name": "octagon",
			"from": [6.9134, 1.09492, 15.07652],
			"to": [9.0866, 1.99508, 15.36607],
			"rotation": {"angle": 0, "axis": "y", "origin": [8, 10.45506, 7.77425]},
			"faces": {
				"north": {"uv": [4, 2.5, 5, 3], "texture": "#12"},
				"east": {"uv": [8, 2, 8.5, 2.5], "texture": "#12"},
				"south": {"uv": [3.5, 4.5, 4.5, 5], "texture": "#12"},
				"west": {"uv": [8, 2.5, 8.5, 3], "texture": "#12"},
				"up": {"uv": [5.5, 5, 4.5, 4.5], "texture": "#12"},
				"down": {"uv": [5.5, 0, 4.5, 0.5], "texture": "#12"}
			}
		},
		{
			"name": "octagon",
			"from": [1.65458, 2.97671, 15.51583],
			"to": [2.50074, 5.01952, 15.788],
			"rotation": {"angle": 45, "axis": "z", "origin": [8, 9.92046, 8.27733]},
			"faces": {
				"north": {"uv": [2.5, 4.5, 3, 5.5], "texture": "#12"},
				"east": {"uv": [4.5, 0.5, 5, 1.5], "texture": "#12"},
				"south": {"uv": [4.5, 3, 5, 4], "texture": "#12"},
				"west": {"uv": [0, 5, 0.5, 6], "texture": "#12"},
				"up": {"uv": [8.5, 3.5, 8, 3], "texture": "#12"},
				"down": {"uv": [8.5, 3.5, 8, 4], "texture": "#12"}
			}
		},
		{
			"name": "octagon",
			"from": [7.57692, 0.5236, 15.51583],
			"to": [8.42308, 2.5664, 15.788],
			"rotation": {"angle": 0, "axis": "y", "origin": [8, 9.92046, 8.27733]},
			"faces": {
				"north": {"uv": [0.5, 5, 1, 6], "texture": "#12"},
				"east": {"uv": [1, 5, 1.5, 6], "texture": "#12"},
				"south": {"uv": [1.5, 5, 2, 6], "texture": "#12"},
				"west": {"uv": [2, 5, 2.5, 6], "texture": "#12"},
				"up": {"uv": [8.5, 4.5, 8, 4], "texture": "#12"},
				"down": {"uv": [8.5, 4.5, 8, 5], "texture": "#12"}
			}
		},
		{
			"name": "octagon",
			"from": [1.05625, 3.57504, 15.51583],
			"to": [3.09906, 4.42119, 15.788],
			"rotation": {"angle": 45, "axis": "z", "origin": [8, 9.92046, 8.27733]},
			"faces": {
				"north": {"uv": [4.5, 4, 5.5, 4.5], "texture": "#12"},
				"east": {"uv": [8, 5, 8.5, 5.5], "texture": "#12"},
				"south": {"uv": [3, 5, 4, 5.5], "texture": "#12"},
				"west": {"uv": [8, 5.5, 8.5, 6], "texture": "#12"},
				"up": {"uv": [5, 5.5, 4, 5], "texture": "#12"},
				"down": {"uv": [6, 5, 5, 5.5], "texture": "#12"}
			}
		},
		{
			"name": "octagon",
			"from": [6.9786, 1.12192, 15.51583],
			"to": [9.0214, 1.96808, 15.788],
			"rotation": {"angle": 0, "axis": "y", "origin": [8, 9.92046, 8.27733]},
			"faces": {
				"north": {"uv": [5, 0.5, 6, 1], "texture": "#12"},
				"east": {"uv": [8, 6, 8.5, 6.5], "texture": "#12"},
				"south": {"uv": [5, 1, 6, 1.5], "texture": "#12"},
				"west": {"uv": [8, 6.5, 8.5, 7], "texture": "#12"},
				"up": {"uv": [6, 2, 5, 1.5], "texture": "#12"},
				"down": {"uv": [6, 2, 5, 2.5], "texture": "#12"}
			}
		},
		{
			"name": "octagon",
			"from": [1.9084, 2.91944, 15.91079],
			"to": [2.72071, 4.88054, 16.17207],
			"rotation": {"angle": 45, "axis": "z", "origin": [8, 9.58544, 8.60022]},
			"faces": {
				"north": {"uv": [5, 2.5, 5.5, 3.5], "texture": "#12"},
				"east": {"uv": [2.5, 5.5, 3, 6.5], "texture": "#12"},
				"south": {"uv": [3, 5.5, 3.5, 6.5], "texture": "#12"},
				"west": {"uv": [3.5, 5.5, 4, 6.5], "texture": "#12"},
				"up": {"uv": [8.5, 7.5, 8, 7], "texture": "#12"},
				"down": {"uv": [0.5, 8.5, 0, 9], "texture": "#12"}
			}
		},
		{
			"name": "octagon",
			"from": [7.59384, 0.56445, 15.91079],
			"to": [8.40616, 2.52555, 16.17207],
			"rotation": {"angle": 0, "axis": "y", "origin": [8, 9.58544, 8.60022]},
			"faces": {
				"north": {"uv": [4, 5.5, 4.5, 6.5], "texture": "#12"},
				"east": {"uv": [4.5, 5.5, 5, 6.5], "texture": "#12"},
				"south": {"uv": [5, 5.5, 5.5, 6.5], "texture": "#12"},
				"west": {"uv": [5.5, 5.5, 6, 6.5], "texture": "#12"},
				"up": {"uv": [1, 9, 0.5, 8.5], "texture": "#12"},
				"down": {"uv": [1.5, 8.5, 1, 9], "texture": "#12"}
			}
		},
		{
			"name": "octagon",
			"from": [1.334, 3.49383, 15.91079],
			"to": [3.2951, 4.30615, 16.17207],
			"rotation": {"angle": 45, "axis": "z", "origin": [8, 9.58544, 8.60022]},
			"faces": {
				"north": {"uv": [5, 3.5, 6, 4], "texture": "#12"},
				"east": {"uv": [1.5, 8.5, 2, 9], "texture": "#12"},
				"south": {"uv": [5.5, 0, 6.5, 0.5], "texture": "#12"},
				"west": {"uv": [2, 8.5, 2.5, 9], "texture": "#12"},
				"up": {"uv": [6.5, 3, 5.5, 2.5], "texture": "#12"},
				"down": {"uv": [6.5, 3, 5.5, 3.5], "texture": "#12"}
			}
		},
		{
			"name": "octagon",
			"from": [7.01945, 1.13884, 15.91079],
			"to": [8.98055, 1.95116, 16.17207],
			"rotation": {"angle": 0, "axis": "y", "origin": [8, 9.58544, 8.60022]},
			"faces": {
				"north": {"uv": [5.5, 4, 6.5, 4.5], "texture": "#12"},
				"east": {"uv": [2.5, 8.5, 3, 9], "texture": "#12"},
				"south": {"uv": [5.5, 4.5, 6.5, 5], "texture": "#12"},
				"west": {"uv": [3, 8.5, 3.5, 9], "texture": "#12"},
				"up": {"uv": [1, 6.5, 0, 6], "texture": "#12"},
				"down": {"uv": [2, 6, 1, 6.5], "texture": "#12"}
			}
		},
		{
			"name": "octagon",
			"from": [2.03023, 2.89195, 16.28],
			"to": [2.82629, 4.81383, 16.53606],
			"rotation": {"angle": 45, "axis": "z", "origin": [8, 9.42463, 8.75888]},
			"faces": {
				"north": {"uv": [2, 6, 2.5, 7], "texture": "#12"},
				"east": {"uv": [6, 6, 6.5, 7], "texture": "#12"},
				"south": {"uv": [6, 0.5, 6.5, 1.5], "texture": "#12"},
				"west": {"uv": [6, 1.5, 6.5, 2.5], "texture": "#12"},
				"up": {"uv": [4, 9, 3.5, 8.5], "texture": "#12"},
				"down": {"uv": [4.5, 8.5, 4, 9], "texture": "#12"}
			}
		},
		{
			"name": "octagon",
			"from": [7.60197, 0.58406, 16.28],
			"to": [8.39803, 2.50594, 16.53606],
			"rotation": {"angle": 0, "axis": "y", "origin": [8, 9.42463, 8.75888]},
			"faces": {
				"north": {"uv": [6, 5, 6.5, 6], "texture": "#12"},
				"east": {"uv": [0, 6.5, 0.5, 7.5], "texture": "#12"},
				"south": {"uv": [0.5, 6.5, 1, 7.5], "texture": "#12"},
				"west": {"uv": [1, 6.5, 1.5, 7.5], "texture": "#12"},
				"up": {"uv": [5, 9, 4.5, 8.5], "texture": "#12"},
				"down": {"uv": [5.5, 8.5, 5, 9], "texture": "#12"}
			}
		},
		{
			"name": "octagon",
			"from": [1.46732, 3.45486, 16.28],
			"to": [3.3892, 4.25092, 16.53606],
			"rotation": {"angle": 45, "axis": "z", "origin": [8, 9.42463, 8.75888]},
			"faces": {
				"north": {"uv": [6, 3.5, 7, 4], "texture": "#12"},
				"east": {"uv": [5.5, 8.5, 6, 9], "texture": "#12"},
				"south": {"uv": [2.5, 6.5, 3.5, 7], "texture": "#12"},
				"west": {"uv": [6, 8.5, 6.5, 9], "texture": "#12"},
				"up": {"uv": [4.5, 7, 3.5, 6.5], "texture": "#12"},
				"down": {"uv": [5.5, 6.5, 4.5, 7], "texture": "#12"}
			}
		},
		{
			"name": "octagon",
			"from": [7.03906, 1.14697, 16.28],
			"to": [8.96094, 1.94303, 16.53606],
			"rotation": {"angle": 0, "axis": "y", "origin": [8, 9.42463, 8.75888]},
			"faces": {
				"north": {"uv": [6.5, 6.5, 7.5, 7], "texture": "#12"},
				"east": {"uv": [6.5, 8.5, 7, 9], "texture": "#12"},
				"south": {"uv": [6.5, 0, 7.5, 0.5], "texture": "#12"},
				"west": {"uv": [7, 8.5, 7.5, 9], "texture": "#12"},
				"up": {"uv": [7.5, 1, 6.5, 0.5], "texture": "#12"},
				"down": {"uv": [7.5, 1, 6.5, 1.5], "texture": "#12"}
			}
		},
		{
			"name": "octagon",
			"from": [3.62848, 2.53134, 15.19914],
			"to": [4.21142, 3.93868, 16.74344],
			"rotation": {"angle": 45, "axis": "z", "origin": [8, 7.31506, 10.55744]},
			"faces": {
				"north": {"uv": [7.5, 3, 8, 3.5], "texture": "#12"},
				"east": {"uv": [0, 0, 1, 0.5], "texture": "#12"},
				"south": {"uv": [7.5, 3.5, 8, 4], "texture": "#12"},
				"west": {"uv": [0, 0.5, 1, 1], "texture": "#12"},
				"up": {"uv": [0.5, 2, 0, 1], "texture": "#12"},
				"down": {"uv": [1, 1, 0.5, 2], "texture": "#12"}
			}
		},
		{
			"name": "octagon",
			"from": [7.70853, 0.84133, 15.19914],
			"to": [8.29147, 2.24867, 16.74344],
			"rotation": {"angle": 0, "axis": "y", "origin": [8, 7.31506, 10.55744]},
			"faces": {
				"north": {"uv": [7.5, 4, 8, 4.5], "texture": "#12"},
				"east": {"uv": [1, 1, 2, 1.5], "texture": "#12"},
				"south": {"uv": [7.5, 4.5, 8, 5], "texture": "#12"},
				"west": {"uv": [1, 0, 2, 0.5], "texture": "#12"},
				"up": {"uv": [1.5, 2.5, 1, 1.5], "texture": "#12"},
				"down": {"uv": [2, 1.5, 1.5, 2.5], "texture": "#12"}
			}
		},
		{
			"name": "octagon",
			"from": [3.21628, 2.94354, 15.19914],
			"to": [4.62362, 3.52648, 16.74344],
			"rotation": {"angle": 45, "axis": "z", "origin": [8, 7.31506, 10.55744]},
			"faces": {
				"north": {"uv": [7.5, 5, 8, 5.5], "texture": "#12"},
				"east": {"uv": [1, 0.5, 2, 1], "texture": "#12"},
				"south": {"uv": [7.5, 5.5, 8, 6], "texture": "#12"},
				"west": {"uv": [0, 2, 1, 2.5], "texture": "#12"},
				"up": {"uv": [2.5, 3, 2, 2], "texture": "#12"},
				"down": {"uv": [2.5, 0, 2, 1], "texture": "#12"}
			}
		},
		{
			"name": "octagon",
			"from": [7.29633, 1.25353, 15.19914],
			"to": [8.70367, 1.83647, 16.74344],
			"rotation": {"angle": 0, "axis": "y", "origin": [8, 7.31506, 10.55744]},
			"faces": {
				"north": {"uv": [7.5, 6, 8, 6.5], "texture": "#12"},
				"east": {"uv": [2, 1, 3, 1.5], "texture": "#12"},
				"south": {"uv": [7.5, 6.5, 8, 7], "texture": "#12"},
				"west": {"uv": [2, 1.5, 3, 2], "texture": "#12"},
				"up": {"uv": [0.5, 3.5, 0, 2.5], "texture": "#12"},
				"down": {"uv": [1, 2.5, 0.5, 3.5], "texture": "#12"}
			}
		},
		{
			"name": "octagon",
			"from": [5.50199, 2.10862, 17.25506],
			"to": [5.8351, 2.91282, 17.93752],
			"rotation": {"angle": 45, "axis": "z", "origin": [8, 4.84218, 13.31695]},
			"faces": {
				"north": {"uv": [7.5, 8.5, 8, 9], "texture": "#12"},
				"east": {"uv": [8, 8.5, 8.5, 9], "texture": "#12"},
				"south": {"uv": [8.5, 8.5, 9, 9], "texture": "#12"},
				"west": {"uv": [8.5, 0, 9, 0.5], "texture": "#12"},
				"up": {"uv": [9, 1, 8.5, 0.5], "texture": "#12"},
				"down": {"uv": [9, 1, 8.5, 1.5], "texture": "#12"}
			}
		},
		{
			"name": "octagon",
			"from": [7.83345, 1.1429, 17.25506],
			"to": [8.16655, 1.9471, 17.93752],
			"rotation": {"angle": 0, "axis": "y", "origin": [8, 4.84218, 13.31695]},
			"faces": {
				"north": {"uv": [8.5, 1.5, 9, 2], "texture": "#12"},
				"east": {"uv": [8.5, 2, 9, 2.5], "texture": "#12"},
				"south": {"uv": [8.5, 2.5, 9, 3], "texture": "#12"},
				"west": {"uv": [8.5, 3, 9, 3.5], "texture": "#12"},
				"up": {"uv": [9, 4, 8.5, 3.5], "texture": "#12"},
				"down": {"uv": [9, 4, 8.5, 4.5], "texture": "#12"}
			}
		},
		{
			"name": "octagon",
			"from": [5.26644, 2.34417, 17.25506],
			"to": [6.07064, 2.67728, 17.93752],
			"rotation": {"angle": 45, "axis": "z", "origin": [8, 4.84218, 13.31695]},
			"faces": {
				"north": {"uv": [8.5, 4.5, 9, 5], "texture": "#12"},
				"east": {"uv": [8.5, 5, 9, 5.5], "texture": "#12"},
				"south": {"uv": [8.5, 5.5, 9, 6], "texture": "#12"},
				"west": {"uv": [8.5, 6, 9, 6.5], "texture": "#12"},
				"up": {"uv": [9, 7, 8.5, 6.5], "texture": "#12"},
				"down": {"uv": [9, 7, 8.5, 7.5], "texture": "#12"}
			}
		},
		{
			"name": "octagon",
			"from": [7.5979, 1.37845, 17.25506],
			"to": [8.4021, 1.71155, 17.93752],
			"rotation": {"angle": 0, "axis": "y", "origin": [8, 4.84218, 13.31695]},
			"faces": {
				"north": {"uv": [8.5, 7.5, 9, 8], "texture": "#12"},
				"east": {"uv": [8.5, 8, 9, 8.5], "texture": "#12"},
				"south": {"uv": [0, 9, 0.5, 9.5], "texture": "#12"},
				"west": {"uv": [0.5, 9, 1, 9.5], "texture": "#12"},
				"up": {"uv": [1.5, 9.5, 1, 9], "texture": "#12"},
				"down": {"uv": [2, 9, 1.5, 9.5], "texture": "#12"}
			}
		},
		{
			"name": "octagon",
			"from": [2.00125, 2.89849, 16.5794],
			"to": [2.80118, 4.82969, 17.23818],
			"rotation": {"angle": 45, "axis": "z", "origin": [8, 9.46287, 8.14795]},
			"faces": {
				"north": {"uv": [1.5, 6.5, 2, 7.5], "texture": "#12"},
				"east": {"uv": [5.5, 6.5, 6, 7.5], "texture": "#12"},
				"south": {"uv": [6.5, 1.5, 7, 2.5], "texture": "#12"},
				"west": {"uv": [6.5, 2.5, 7, 3.5], "texture": "#12"},
				"up": {"uv": [2.5, 9.5, 2, 9], "texture": "#12"},
				"down": {"uv": [3, 9, 2.5, 9.5], "texture": "#12"}
			}
		},
		{
			"name": "octagon",
			"from": [7.60004, 0.5794, 16.5794],
			"to": [8.39996, 2.5106, 17.23818],
			"rotation": {"angle": 0, "axis": "y", "origin": [8, 9.46287, 8.14795]},
			"faces": {
				"north": {"uv": [6.5, 4, 7, 5], "texture": "#12"},
				"east": {"uv": [6.5, 5, 7, 6], "texture": "#12"},
				"south": {"uv": [2, 7, 2.5, 8], "texture": "#12"},
				"west": {"uv": [2.5, 7, 3, 8], "texture": "#12"},
				"up": {"uv": [3.5, 9.5, 3, 9], "texture": "#12"},
				"down": {"uv": [4, 9, 3.5, 9.5], "texture": "#12"}
			}
		},
		{
			"name": "octagon",
			"from": [1.43562, 3.46413, 16.5794],
			"to": [3.36682, 4.26406, 17.23818],
			"rotation": {"angle": 45, "axis": "z", "origin": [8, 9.46287, 8.14795]},
			"faces": {
				"north": {"uv": [6.5, 6, 7.5, 6.5], "texture": "#12"},
				"east": {"uv": [4, 9, 4.5, 9.5], "texture": "#12"},
				"south": {"uv": [3, 7, 4, 7.5], "texture": "#12"},
				"west": {"uv": [4.5, 9, 5, 9.5], "texture": "#12"},
				"up": {"uv": [5, 7.5, 4, 7], "texture": "#12"},
				"down": {"uv": [7, 7, 6, 7.5], "texture": "#12"}
			}
		},
		{
			"name": "octagon",
			"from": [7.0344, 1.14504, 16.5794],
			"to": [8.9656, 1.94496, 17.23818],
			"rotation": {"angle": 0, "axis": "y", "origin": [8, 9.46287, 8.14795]},
			"faces": {
				"north": {"uv": [7, 7, 8, 7.5], "texture": "#12"},
				"east": {"uv": [5, 9, 5.5, 9.5], "texture": "#12"},
				"south": {"uv": [7, 1.5, 8, 2], "texture": "#12"},
				"west": {"uv": [5.5, 9, 6, 9.5], "texture": "#12"},
				"up": {"uv": [8, 2.5, 7, 2], "texture": "#12"},
				"down": {"uv": [8, 2.5, 7, 3], "texture": "#12"}
			}
		},
		{
			"name": "octagon",
			"from": [2.96105, 2.68193, 17.21085],
			"to": [3.63299, 4.30414, 17.60673],
			"rotation": {"angle": 45, "axis": "z", "origin": [8, 8.19601, 9.62968]},
			"faces": {
				"north": {"uv": [5, 7, 5.5, 8], "texture": "#12"},
				"east": {"uv": [7, 3, 7.5, 4], "texture": "#12"},
				"south": {"uv": [7, 4, 7.5, 5], "texture": "#12"},
				"west": {"uv": [7, 5, 7.5, 6], "texture": "#12"},
				"up": {"uv": [6.5, 9.5, 6, 9], "texture": "#12"},
				"down": {"uv": [7, 9, 6.5, 9.5], "texture": "#12"}
			}
		},
		{
			"name": "octagon",
			"from": [7.66403, 0.7339, 17.21085],
			"to": [8.33597, 2.3561, 17.60673],
			"rotation": {"angle": 0, "axis": "y", "origin": [8, 8.19601, 9.62968]},
			"faces": {
				"north": {"uv": [0, 7.5, 0.5, 8.5], "texture": "#12"},
				"east": {"uv": [0.5, 7.5, 1, 8.5], "texture": "#12"},
				"south": {"uv": [1, 7.5, 1.5, 8.5], "texture": "#12"},
				"west": {"uv": [1.5, 7.5, 2, 8.5], "texture": "#12"},
				"up": {"uv": [7.5, 9.5, 7, 9], "texture": "#12"},
				"down": {"uv": [8, 9, 7.5, 9.5], "texture": "#12"}
			}
		},
		{
			"name": "octagon",
			"from": [2.48592, 3.15707, 17.21085],
			"to": [4.10813, 3.82901, 17.60673],
			"rotation": {"angle": 45, "axis": "z", "origin": [8, 8.19601, 9.62968]},
			"faces": {
				"north": {"uv": [3, 7.5, 4, 8], "texture": "#12"},
				"east": {"uv": [8, 9, 8.5, 9.5], "texture": "#12"},
				"south": {"uv": [4, 7.5, 5, 8], "texture": "#12"},
				"west": {"uv": [8.5, 9, 9, 9.5], "texture": "#12"},
				"up": {"uv": [6.5, 8, 5.5, 7.5], "texture": "#12"},
				"down": {"uv": [7.5, 7.5, 6.5, 8], "texture": "#12"}
			}
		},
		{
			"name": "octagon",
			"from": [7.1889, 1.20903, 17.21085],
			"to": [8.8111, 1.88097, 17.60673],
			"rotation": {"angle": 0, "axis": "y", "origin": [8, 8.19601, 9.62968]},
			"faces": {
				"north": {"uv": [7.5, 7.5, 8.5, 8], "texture": "#12"},
				"east": {"uv": [9, 9, 9.5, 9.5], "texture": "#12"},
				"south": {"uv": [7.5, 0, 8.5, 0.5], "texture": "#12"},
				"west": {"uv": [9, 0, 9.5, 0.5], "texture": "#12"},
				"up": {"uv": [8.5, 1, 7.5, 0.5], "texture": "#12"},
				"down": {"uv": [8.5, 1, 7.5, 1.5], "texture": "#12"}
			}
		}
	],
	"display": {
		"thirdperson_righthand": {
			"rotation": [90, 0, 0],
			"translation": [0, 0, 3],
			"scale": [0.5, 0.5, 0.5]
		},
		"thirdperson_lefthand": {
			"rotation": [90, 0, 0],
			"translation": [0, 0, 3],
			"scale": [0.5, 0.5, 0.5]
		},
		"firstperson_righthand": {
			"rotation": [90, 0, 30]
		},
		"firstperson_lefthand": {
			"rotation": [90, 0, 30]
		},
		"fixed": {
			"rotation": [90, 45, 0],
			"translation": [1.25, -1.75, 6]
		},
		"ground": {
			"translation": [0, 4, 0]
		},
		"gui": {
			"rotation": [90, 0, 30],
			"translation": [-3, 8, 0]
		}
	}
}